<svg width="76" height="70" viewBox="0 0 76 70" fill="none" xmlns="http://www.w3.org/2000/svg">
<path d="M45.7368 5.98029C46.5263 6.37503 47.2368 6.76976 47.9473 7.24345C48.3421 7.48029 48.7368 7.63819 49.1316 7.63819C49.8421 7.63819 50.4737 7.3224 50.8684 6.69082C51.5 5.74345 51.2631 4.40134 50.3158 3.76976C49.4473 3.21713 48.5789 2.6645 47.6316 2.19082C46.6052 1.71713 45.3421 2.11187 44.7895 3.13819C44.3158 4.24345 44.7105 5.50661 45.7368 5.98029Z" fill="#60B4AB"/>
<path d="M26.6316 7.79615C27.0263 7.79615 27.5 7.63825 27.8158 7.40141C28.5263 6.92772 29.2369 6.45404 29.9474 6.13825C30.9737 5.58562 31.3684 4.32246 30.8948 3.29614C30.3421 2.26983 29.079 1.87509 28.0527 2.34878C27.1053 2.82246 26.2369 3.37509 25.3684 3.92772C24.4211 4.5593 24.1842 5.90141 24.8158 6.84878C25.2895 7.48036 25.9211 7.79615 26.6316 7.79615Z" fill="#60B4AB"/>
<path d="M54.0263 14.3487C54.421 15.1382 55.1316 15.5329 55.921 15.5329C56.2368 15.5329 56.5526 15.454 56.8684 15.2961C57.8947 14.8224 58.3684 13.5593 57.8947 12.454C57.421 11.5066 56.9474 10.6382 56.3947 9.76978C55.7631 8.82241 54.421 8.50662 53.4737 9.21715C52.5263 9.84873 52.2105 11.1908 52.921 12.1382C53.2368 12.8487 53.7105 13.5593 54.0263 14.3487Z" fill="#60B4AB"/>
<path d="M19.0526 15.6908C19.3684 15.8487 19.6053 15.8487 19.9211 15.8487C20.7105 15.8487 21.5 15.375 21.8158 14.5855C22.1316 13.7961 22.6053 13.0855 23 12.375C23.6316 11.4276 23.3158 10.0855 22.3684 9.45395C21.4211 8.82237 20.0789 9.13816 19.4474 10.0855C18.8947 10.954 18.4211 11.9013 17.9474 12.8487C17.4737 13.875 17.9474 15.1382 19.0526 15.6908Z" fill="#60B4AB"/>
<path d="M55.7632 20.9803C55.7632 21.2961 55.7632 21.6119 55.7632 21.9276V23.6645C55.7632 24.8487 56.7105 25.7961 57.8947 25.7961C59.0789 25.7961 60.0263 24.8487 60.0263 23.6645V21.9276C60.0263 21.5329 60.0263 21.1382 60.0263 20.7434C59.9474 19.5592 59 18.6908 57.8158 18.7698C56.5526 18.8487 55.6842 19.875 55.7632 20.9803Z" fill="#60B4AB"/>
<path d="M41.3158 2.26974C41.3947 1.08553 40.5263 0.138158 39.3421 0.0592105C38.3158 -0.0197368 37.2895 -0.0197368 36.2631 0.0592105C35.0789 0.138158 34.2105 1.16447 34.2895 2.34868C34.3684 3.45395 35.3158 4.32237 36.421 4.32237C36.5 4.32237 36.5 4.32237 36.5789 4.32237C37.4474 4.24342 38.2368 4.24342 39.1053 4.32237C40.2895 4.32237 41.3158 3.45395 41.3158 2.26974Z" fill="#60B4AB"/>
<path d="M18.1052 26.1908C19.2895 26.1908 20.2368 25.2435 20.2368 24.0593V21.2961C20.3158 20.1119 19.3684 19.1645 18.1842 19.0856C17 19.0856 16.0526 19.954 15.9737 21.1382V24.0593C15.9737 25.2435 16.921 26.1908 18.1052 26.1908Z" fill="#60B4AB"/>
<path d="M56.7895 37.875C57.2632 38.6644 58.4474 38.6644 58.9211 37.875L63.2632 30.6908C63.7368 29.8223 63.1842 28.796 62.1579 28.796H53.4737C52.5263 28.796 51.8947 29.9013 52.3684 30.6908L56.7895 37.875Z" fill="#60B4AB"/>
<path d="M32.2368 30.4539H4.05263C2.07895 30.4539 0.5 32.0328 0.5 34.0065C0.5 35.9802 2.07895 37.5591 4.05263 37.5591H32.2368C34.2105 37.5591 35.7895 35.9802 35.7895 34.0065C35.7105 32.0328 34.1316 30.4539 32.2368 30.4539Z" fill="#60B4AB"/>
<path d="M71.9474 62.0328H43.7631C41.7895 62.0328 40.2105 63.6118 40.2105 65.5855C40.2105 67.5592 41.7895 69.1381 43.7631 69.1381H71.9474C73.921 69.1381 75.5 67.5592 75.5 65.5855C75.5 63.6118 73.921 62.0328 71.9474 62.0328Z" fill="#60B4AB"/>
<path d="M57.8947 58.5592C62.2112 58.5592 65.7105 55.0599 65.7105 50.7434C65.7105 46.4269 62.2112 42.9276 57.8947 42.9276C53.5782 42.9276 50.0789 46.4269 50.0789 50.7434C50.0789 55.0599 53.5782 58.5592 57.8947 58.5592Z" fill="#60B4AB"/>
</svg>
